HW3
…
2.

manufacturer 중 “volkswagen” 에 대한 자료만 이용하려고 한다.“volkswagen”만을 선택하여 volk에 저장하시오.

volk<- mpg %>% filter(manufacturer=="volkswagen")

## Warning: package 'bindrcpp' was built under R version 3.5.1

volk

## # A tibble: 27 x 11
##    manufacturer model displ  year   cyl trans      drv     cty   hwy fl   
##    <chr>        <chr> <dbl> <int> <int> <chr>      <chr> <int> <int> <chr>
##  1 volkswagen   gti     2    1999     4 manual(m5) f        21    29 r    
##  2 volkswagen   gti     2    1999     4 auto(l4)   f        19    26 r    
##  3 volkswagen   gti     2    2008     4 manual(m6) f        21    29 p    
##  4 volkswagen   gti     2    2008     4 auto(s6)   f        22    29 p    
##  5 volkswagen   gti     2.8  1999     6 manual(m5) f        17    24 r    
##  6 volkswagen   jetta   1.9  1999     4 manual(m5) f        33    44 d    
##  7 volkswagen   jetta   2    1999     4 manual(m5) f        21    29 r    
##  8 volkswagen   jetta   2    1999     4 auto(l4)   f        19    26 r    
##  9 volkswagen   jetta   2    2008     4 auto(s6)   f        22    29 p    
## 10 volkswagen   jetta   2    2008     4 manual(m6) f        21    29 p    
## # ... with 17 more rows, and 1 more variable: class <chr>
…
